dt of empty = 2116.396000
synchronize=0 blocks=    1  threads/block=   1  iteration=2.1 us
dt of empty = 6136.319000
synchronize=1 blocks=    1  threads/block=   1  iteration=6.1 us
dt of empty = 6114.262800
synchronize=1 blocks=    1  threads/block=  32  iteration=6.1 us
dt of empty = 5980.284800
synchronize=1 blocks=    1  threads/block=1024  iteration=6.0 us
dt of empty = 6250.476100
synchronize=1 blocks=   32  threads/block=1024  iteration=6.3 us
dt of empty = 8088.146400
synchronize=1 blocks= 1024  threads/block=  32  iteration=8.1 us
dt of empty = 66701.137700
synchronize=1 blocks=32768  threads/block=   1  iteration=66.7 us
dt of empty = 66673.964200
synchronize=1 blocks=32768  threads/block=  32  iteration=66.7 us
dt of empty = 113939.373100
synchronize=1 blocks=32768  threads/block=1024  iteration=113.9 us
dt of openmp = 20080.000000
Empty OpenMP parallel region with 12 threads --> 20.1 us
